Retail Project
…
The residuals in the arima014111 model follow a normal distribution. However, there are a few significant spikes in the ACF that are a cause for concern, so we should run the Ljung-Box test to confirm the accuracy of the arima014111 model.

## # A tibble: 3 x 3
##   .model      lb_stat  lb_pvalue
##   <chr>         <dbl>      <dbl>
## 1 arima013111    75.3 0.00000915
## 2 arima014111    60.2 0.000875  
## 3 arima210111    64.6 0.000245

The arima014111 model fails the Ljung-Box test. The p-value for the arima014111 model is less than 1%. Therefore, there is sufficient evidence at the 5% level to support the alternative hypothesis that the residuals are distinguishable from a white noise series. This means the arima014111 model can be used for forecasting, but the prediction intervals may not be accurate due to the correlated residuals.

The 24 month forecast from the arima014111 model is shown below:

## # A tsibble: 24 x 5 [1M]
## # Key:       .model [1]
##    .model         Month .mean                   `80%`                   `95%`
##    <chr>          <mth> <dbl>                  <hilo>                  <hilo>
##  1 arima014111 2016 Jan  140. [124.82991, 156.9261]80 [117.98011, 167.4995]95
##  2 arima014111 2016 Feb  103. [ 91.40610, 114.8774]80 [ 86.39570, 122.6075]95
##  3 arima014111 2016 Mar  111. [ 97.36296, 125.3242]80 [ 91.52596, 134.7484]95
##  4 arima014111 2016 Apr  114. [ 98.42755, 130.5963]80 [ 91.89962, 141.7623]95
##  5 arima014111 2016 May  102. [ 88.03304, 116.3556]80 [ 82.26493, 126.1499]95
##  6 arima014111 2016 Jun  109. [ 93.48949, 126.2722]80 [ 86.94646, 137.8499]95
##  7 arima014111 2016 Jul  112. [ 94.93072, 130.1201]80 [ 88.00297, 142.7273]95
##  8 arima014111 2016 Aug  110. [ 92.83999, 128.2714]80 [ 85.91611, 141.0641]95
##  9 arima014111 2016 Sep  125. [104.15629, 148.7393]80 [ 95.70768, 165.3644]95
## 10 arima014111 2016 Oct  132. [108.85598, 158.7384]80 [ 99.58519, 177.7252]95
## # ... with 14 more rows
…
## # A tibble: 4 x 3
##   .model lb_stat lb_pvalue
##   <chr>    <dbl>     <dbl>
## 1 AAA       121.  8.43e-14
## 2 AAdA      127.  7.33e-15
## 3 MAA       138.  1.11e-16
## 4 MAdA      153.  0

The AAA model and AAdA both fail the Ljung-Box test. The p-values for the models are less than 1%. Therefore, there is sufficient evidence at the 5% level to support the alternative hypothesis that the models are distinguishable from a white noise series. This means the models can be used for forecasting, but the prediction intervals may not be accurate due to the correlated residuals.

Considering all of the above, I would prefer the AAdA model. The reason I prefer the AAdA model is because it yields much lower values in all the accuracy measures compared to the AAA model. Though the AAA model yields a lower AICc score, the conflicting results suggested by the accuracy measures confirms my belief that the AAdA model is the better model.

The 24 month forecast from the AAdA model is shown below:

## # A tsibble: 24 x 5 [1M]
## # Key:       .model [1]
##    .model    Month .mean                   `80%`                   `95%`
##    <chr>     <mth> <dbl>                  <hilo>                  <hilo>
##  1 AAdA   2016 Jan  142. [125.02408, 159.6842]80 [117.73598, 171.2788]95
##  2 AAdA   2016 Feb  100. [ 89.35418, 112.0608]80 [ 84.49741, 119.5238]95
##  3 AAdA   2016 Mar  112. [ 97.73069, 126.6468]80 [ 91.73216, 136.4566]95
##  4 AAdA   2016 Apr  116. [100.06584, 132.9155]80 [ 93.40654, 144.3300]95
##  5 AAdA   2016 May  104. [ 89.76252, 119.6618]80 [ 83.72173, 130.0876]95
##  6 AAdA   2016 Jun  111. [ 94.17073, 129.0081]80 [ 87.30880, 141.4826]95
##  7 AAdA   2016 Jul  113. [ 95.29917, 133.4031]80 [ 87.94315, 147.3376]95
##  8 AAdA   2016 Aug  113. [ 93.99692, 133.7822]80 [ 86.43396, 148.5696]95
##  9 AAdA   2016 Sep  128. [104.43015, 154.8482]80 [ 95.20398, 174.3562]95
## 10 AAdA   2016 Oct  134. [107.78204, 164.2160]80 [ 97.71185, 186.6435]95
## # ... with 14 more rows
…
Out-of-sample point forecasts and 80% prediction intervals

We can see there is a slight stabilization in the trend of the series when we forecast the data over the 24 month period. This could be explained by the general decrease in turnover in 2018.

## # A tsibble: 48 x 4 [1M]
## # Key:       .model [2]
##    .model         Month .mean                   `80%`
##    <chr>          <mth> <dbl>                  <hilo>
##  1 arima014111 2019 Jan 133.  [118.81251, 147.9039]80
##  2 arima014111 2019 Feb  99.1 [ 88.61063, 110.3942]80
##  3 arima014111 2019 Mar 112.  [ 98.47430, 126.3634]80
##  4 arima014111 2019 Apr 107.  [ 93.13209, 121.9858]80
##  5 arima014111 2019 May 103.  [ 88.94637, 117.2794]80
##  6 arima014111 2019 Jun 102.  [ 88.17676, 117.5920]80
##  7 arima014111 2019 Jul 113.  [ 96.16696, 131.7015]80
##  8 arima014111 2019 Aug 102.  [ 86.72017, 118.1345]80
##  9 arima014111 2019 Sep 110.  [ 92.78535, 129.3820]80
## 10 arima014111 2019 Oct 122.  [101.13871, 145.0485]80
## # ... with 38 more rows
…
